,Nom Section NAF,Montant total en M€
0,Activités de services administratifs et de soutien,103.80205500000001
1,Activités financières et d'assurance,146.77824799999993
2,Activités immobilières,117.360615
3,"Activités spécialisées, scientifiques et techniques",228.13391900000008
4,"Agriculture, sylviculture et pêche",11.947551
5,"Arts, spectacles et activités récréatives",46.191521
6,Autres activités de services,15.242711999999997
7,Commerce,704.6320720000002
8,Construction,187.76389600000002
9,Enseignement,20.770417000000005
10,Hébergement et restauration,101.99141799999997
11,Industrie manufacturière,464.9331850000001
12,Industries extractives,5.067911
13,Information et communication,166.95332800000006
14,Non connu,290.5607729999998
15,"Production et distribution d'eau ; assainissement, gestion des déchets et dépollution",6.6574729999999995
16,"Production et distribution d'électricité, de gaz, de vapeur et d'air conditionné",8.885711999999998
17,Santé humaine et action sociale,86.49243799999998
18,Transports et entreposage,110.396568
