,Nom Section NAF,Montant total en M€
0,Activités de services administratifs et de soutien,4052.469009
1,Activités financières et d'assurance,10520.735582000007
2,Activités immobilières,1422.5511010000002
3,"Activités spécialisées, scientifiques et techniques",11034.755256999997
4,"Agriculture, sylviculture et pêche",1142.732935
5,"Arts, spectacles et activités récréatives",1667.157186
6,Autres activités de services,1115.0233429999998
7,Commerce,27026.634890000012
8,Construction,9820.720793999999
9,Enseignement,870.9242000000002
10,Hébergement et restauration,7502.721625
11,Industrie manufacturière,19094.210968
12,Industries extractives,40.226082
13,Information et communication,3479.8168820000005
14,Non connu,380.385831
15,"Production et distribution d'eau ; assainissement, gestion des déchets et dépollution",351.46144400000003
16,"Production et distribution d'électricité, de gaz, de vapeur et d'air conditionné",89.416038
17,Santé humaine et action sociale,2621.632869999999
18,Transports et entreposage,8130.550432
