,Nom Section NAF,Nombre d'aides,Montant en M€
0,Activités de services administratifs et de soutien,171316,222.43727499999991
1,Activités financières et d'assurance,32313,45.50690700000003
2,Activités immobilières,112030,152.08955900000004
3,"Activités spécialisées, scientifiques et techniques",403366,548.1786149999998
4,Administration publique,75,0.10332699999999997
5,"Agriculture, sylviculture et pêche",89385,122.84202000000002
6,"Arts, spectacles et activités récréatives",223161,276.10547499999996
7,Autres activités de services,393658,479.9114220000001
8,Commerce,666445,887.2274679999999
9,Construction,437623,626.4724239999998
10,Enseignement,205295,250.88860300000005
11,Hébergement et restauration,483364,694.2510889999998
12,Industrie manufacturière,159730,204.102186
13,Industries extractives,320,0.445423
14,Information et communication,88137,116.96177499999995
15,"Production et distribution d'eau ; assainissement, gestion des déchets et dépollution",8290,10.359499
16,"Production et distribution d'électricité, de gaz, de vapeur et d'air conditionné",1036,1.4567969999999995
17,Santé humaine et action sociale,334825,447.84700999999995
18,Transports et entreposage,316920,448.29512900000003
