﻿Series Name,Series Code,Country Name,Country Code,2019 [YR2019]
"PIB par habitant, ($ PPA internationaux courants)",NY.GDP.PCAP.PP.CD,Afghanistan,AFG,2293.55168387905
"PIB par habitant, ($ PPA internationaux courants)",NY.GDP.PCAP.PP.CD,Albanie,ALB,14495.0785140737
"PIB par habitant, ($ PPA internationaux courants)",NY.GDP.PCAP.PP.CD,Algérie,DZA,11820.0876836807
"PIB par habitant, ($ PPA internationaux courants)",NY.GDP.PCAP.PP.CD,Samoa américaines,ASM,..
"PIB par habitant, ($ PPA internationaux courants)",NY.GDP.PCAP.PP.CD,Andorre,AND,..
"PIB par habitant, ($ PPA internationaux courants)",NY.GDP.PCAP.PP.CD,Angola,AGO,6929.67815844764
"PIB par habitant, ($ PPA internationaux courants)",NY.GDP.PCAP.PP.CD,Antigua-et-Barbuda,ATG,22816.4522023563
"PIB par habitant, ($ PPA internationaux courants)",NY.GDP.PCAP.PP.CD,Argentine,ARG,22947.1397952874
"PIB par habitant, ($ PPA internationaux courants)",NY.GDP.PCAP.PP.CD,Arménie,ARM,14219.6277088197
"PIB par habitant, ($ PPA internationaux courants)",NY.GDP.PCAP.PP.CD,Aruba,ABW,..
"PIB par habitant, ($ PPA internationaux courants)",NY.GDP.PCAP.PP.CD,Australie,AUS,53320.2690427848
"PIB par habitant, ($ PPA internationaux courants)",NY.GDP.PCAP.PP.CD,Autriche,AUT,59110.5625590813
"PIB par habitant, ($ PPA internationaux courants)",NY.GDP.PCAP.PP.CD,Azerbaïdjan,AZE,15000.8164973542
"PIB par habitant, ($ PPA internationaux courants)",NY.GDP.PCAP.PP.CD,Bahamas,BHS,37265.8121022677
"PIB par habitant, ($ PPA internationaux courants)",NY.GDP.PCAP.PP.CD,Bahreïn,BHR,46891.8598387148
"PIB par habitant, ($ PPA internationaux courants)",NY.GDP.PCAP.PP.CD,Bangladesh,BGD,4950.74358140884
"PIB par habitant, ($ PPA internationaux courants)",NY.GDP.PCAP.PP.CD,Barbade,BRB,16286.9795151271
"PIB par habitant, ($ PPA internationaux courants)",NY.GDP.PCAP.PP.CD,Bélarus,BLR,19943.2925233137
"PIB par habitant, ($ PPA internationaux courants)",NY.GDP.PCAP.PP.CD,Belgique,BEL,54545.1508845001
"PIB par habitant, ($ PPA internationaux courants)",NY.GDP.PCAP.PP.CD,Belize,BLZ,7295.23013575062
"PIB par habitant, ($ PPA internationaux courants)",NY.GDP.PCAP.PP.CD,Bénin,BEN,3423.55172692169
"PIB par habitant, ($ PPA internationaux courants)",NY.GDP.PCAP.PP.CD,Bermudes,BMU,..
"PIB par habitant, ($ PPA internationaux courants)",NY.GDP.PCAP.PP.CD,Bhoutan,BTN,..
"PIB par habitant, ($ PPA internationaux courants)",NY.GDP.PCAP.PP.CD,Bolivie,BOL,9086.06069605746
"PIB par habitant, ($ PPA internationaux courants)",NY.GDP.PCAP.PP.CD,Bosnie-Herzégovine,BIH,15791.6747394431
"PIB par habitant, ($ PPA internationaux courants)",NY.GDP.PCAP.PP.CD,Botswana,BWA,18502.8182229188
"PIB par habitant, ($ PPA internationaux courants)",NY.GDP.PCAP.PP.CD,Brésil,BRA,15258.8508327006
"PIB par habitant, ($ PPA internationaux courants)",NY.GDP.PCAP.PP.CD,Îles Vierges britanniques,VGB,..
"PIB par habitant, ($ PPA internationaux courants)",NY.GDP.PCAP.PP.CD,Brunéi Darussalam,BRN,64673.2985705505
"PIB par habitant, ($ PPA internationaux courants)",NY.GDP.PCAP.PP.CD,Bulgarie,BGR,24561.1826135398
"PIB par habitant, ($ PPA internationaux courants)",NY.GDP.PCAP.PP.CD,Burkina Faso,BFA,2280.38003653286
"PIB par habitant, ($ PPA internationaux courants)",NY.GDP.PCAP.PP.CD,Burundi,BDI,782.816588798388
"PIB par habitant, ($ PPA internationaux courants)",NY.GDP.PCAP.PP.CD,Cabo Verde,CPV,7469.07557883617
"PIB par habitant, ($ PPA internationaux courants)",NY.GDP.PCAP.PP.CD,Cambodge,KHM,4570.6942887569
"PIB par habitant, ($ PPA internationaux courants)",NY.GDP.PCAP.PP.CD,Cameroun,CMR,3804.07171078258
"PIB par habitant, ($ PPA internationaux courants)",NY.GDP.PCAP.PP.CD,Canada,CAN,51341.7051667877
"PIB par habitant, ($ PPA internationaux courants)",NY.GDP.PCAP.PP.CD,Îles Caïmans,CYM,..
"PIB par habitant, ($ PPA internationaux courants)",NY.GDP.PCAP.PP.CD,République centrafricaine,CAF,984.028049674848
"PIB par habitant, ($ PPA internationaux courants)",NY.GDP.PCAP.PP.CD,Tchad,TCD,1645.09415290703
"PIB par habitant, ($ PPA internationaux courants)",NY.GDP.PCAP.PP.CD,Îles Anglo-Normandes,CHI,..
"PIB par habitant, ($ PPA internationaux courants)",NY.GDP.PCAP.PP.CD,Chili,CHL,25154.9928229185
"PIB par habitant, ($ PPA internationaux courants)",NY.GDP.PCAP.PP.CD,Chine,CHN,16784.6593497155
"PIB par habitant, ($ PPA internationaux courants)",NY.GDP.PCAP.PP.CD,Colombie,COL,15643.7314460931
"PIB par habitant, ($ PPA internationaux courants)",NY.GDP.PCAP.PP.CD,Comores,COM,3209.09129100149
"PIB par habitant, ($ PPA internationaux courants)",NY.GDP.PCAP.PP.CD,"Congo, République démocratique du",COD,1143.4532245044
"PIB par habitant, ($ PPA internationaux courants)",NY.GDP.PCAP.PP.CD,"Congo, République du",COG,3434.75567523643
"PIB par habitant, ($ PPA internationaux courants)",NY.GDP.PCAP.PP.CD,Costa Rica,CRI,20434.4084263187
"PIB par habitant, ($ PPA internationaux courants)",NY.GDP.PCAP.PP.CD,Côte d'Ivoire,CIV,5455.36001247764
"PIB par habitant, ($ PPA internationaux courants)",NY.GDP.PCAP.PP.CD,Croatie,HRV,29973.4260925049
"PIB par habitant, ($ PPA internationaux courants)",NY.GDP.PCAP.PP.CD,Cuba,CUB,..
"PIB par habitant, ($ PPA internationaux courants)",NY.GDP.PCAP.PP.CD,Curacao,CUW,..
"PIB par habitant, ($ PPA internationaux courants)",NY.GDP.PCAP.PP.CD,Chypre,CYP,41254.40458771
"PIB par habitant, ($ PPA internationaux courants)",NY.GDP.PCAP.PP.CD,République tchèque,CZE,42575.6114778391
"PIB par habitant, ($ PPA internationaux courants)",NY.GDP.PCAP.PP.CD,Danemark,DNK,59830.1542405139
"PIB par habitant, ($ PPA internationaux courants)",NY.GDP.PCAP.PP.CD,Djibouti,DJI,5748.08104445594
"PIB par habitant, ($ PPA internationaux courants)",NY.GDP.PCAP.PP.CD,Dominique,DMA,12659.3445149032
"PIB par habitant, ($ PPA internationaux courants)",NY.GDP.PCAP.PP.CD,République dominicaine,DOM,19182.4091507031
"PIB par habitant, ($ PPA internationaux courants)",NY.GDP.PCAP.PP.CD,Équateur,ECU,11846.7805579093
"PIB par habitant, ($ PPA internationaux courants)",NY.GDP.PCAP.PP.CD,"Égypte, République arabe d’",EGY,12250.7804142431
"PIB par habitant, ($ PPA internationaux courants)",NY.GDP.PCAP.PP.CD,El Salvador,SLV,9139.70633420179
"PIB par habitant, ($ PPA internationaux courants)",NY.GDP.PCAP.PP.CD,Guinée équatoriale,GNQ,19327.1383188315
"PIB par habitant, ($ PPA internationaux courants)",NY.GDP.PCAP.PP.CD,Érythrée,ERI,..
"PIB par habitant, ($ PPA internationaux courants)",NY.GDP.PCAP.PP.CD,Estonie,EST,38811.1433407717
"PIB par habitant, ($ PPA internationaux courants)",NY.GDP.PCAP.PP.CD,Eswatini,SWZ,9048.17892189938
"PIB par habitant, ($ PPA internationaux courants)",NY.GDP.PCAP.PP.CD,Éthiopie,ETH,2311.70438636716
"PIB par habitant, ($ PPA internationaux courants)",NY.GDP.PCAP.PP.CD,Îles Féroé,FRO,..
"PIB par habitant, ($ PPA internationaux courants)",NY.GDP.PCAP.PP.CD,Fidji,FJI,14427.5824179953
"PIB par habitant, ($ PPA internationaux courants)",NY.GDP.PCAP.PP.CD,Finlande,FIN,51323.8333764442
"PIB par habitant, ($ PPA internationaux courants)",NY.GDP.PCAP.PP.CD,France,FRA,49435.179939609
"PIB par habitant, ($ PPA internationaux courants)",NY.GDP.PCAP.PP.CD,Polynésie française,PYF,..
"PIB par habitant, ($ PPA internationaux courants)",NY.GDP.PCAP.PP.CD,Gabon,GAB,15486.0683210591
"PIB par habitant, ($ PPA internationaux courants)",NY.GDP.PCAP.PP.CD,Gambie,GMB,2298.37817290533
"PIB par habitant, ($ PPA internationaux courants)",NY.GDP.PCAP.PP.CD,Géorgie,GEO,15636.5537604743
"PIB par habitant, ($ PPA internationaux courants)",NY.GDP.PCAP.PP.CD,Allemagne,DEU,56052.4220698856
"PIB par habitant, ($ PPA internationaux courants)",NY.GDP.PCAP.PP.CD,Ghana,GHA,5636.95391019817
"PIB par habitant, ($ PPA internationaux courants)",NY.GDP.PCAP.PP.CD,Gibraltar,GIB,..
"PIB par habitant, ($ PPA internationaux courants)",NY.GDP.PCAP.PP.CD,Grèce,GRC,31399.4156733879
"PIB par habitant, ($ PPA internationaux courants)",NY.GDP.PCAP.PP.CD,Groenland,GRL,..
"PIB par habitant, ($ PPA internationaux courants)",NY.GDP.PCAP.PP.CD,Grenade,GRD,17956.1054033822
"PIB par habitant, ($ PPA internationaux courants)",NY.GDP.PCAP.PP.CD,Guam,GUM,..
"PIB par habitant, ($ PPA internationaux courants)",NY.GDP.PCAP.PP.CD,Guatemala,GTM,8995.5378734599
"PIB par habitant, ($ PPA internationaux courants)",NY.GDP.PCAP.PP.CD,Guinée,GIN,2670.30894674638
"PIB par habitant, ($ PPA internationaux courants)",NY.GDP.PCAP.PP.CD,Guinée-Bissau,GNB,2071.81624750216
"PIB par habitant, ($ PPA internationaux courants)",NY.GDP.PCAP.PP.CD,Guyane,GUY,10104.7011912961
"PIB par habitant, ($ PPA internationaux courants)",NY.GDP.PCAP.PP.CD,Haïti,HTI,1800.56456129513
"PIB par habitant, ($ PPA internationaux courants)",NY.GDP.PCAP.PP.CD,Honduras,HND,5965.3688189555
"PIB par habitant, ($ PPA internationaux courants)",NY.GDP.PCAP.PP.CD,"Chine, RAS de Hong Kong",HKG,62375.1193699712
"PIB par habitant, ($ PPA internationaux courants)",NY.GDP.PCAP.PP.CD,Hongrie,HUN,33978.9550945494
"PIB par habitant, ($ PPA internationaux courants)",NY.GDP.PCAP.PP.CD,Islande,ISL,60061.3705901909
"PIB par habitant, ($ PPA internationaux courants)",NY.GDP.PCAP.PP.CD,Inde,IND,7034.21722432128
"PIB par habitant, ($ PPA internationaux courants)",NY.GDP.PCAP.PP.CD,Indonésie,IDN,12301.7528999018
"PIB par habitant, ($ PPA internationaux courants)",NY.GDP.PCAP.PP.CD,"Iran, République islamique d’",IRN,..
"PIB par habitant, ($ PPA internationaux courants)",NY.GDP.PCAP.PP.CD,Iraq,IRQ,11332.1414748318
"PIB par habitant, ($ PPA internationaux courants)",NY.GDP.PCAP.PP.CD,Irlande,IRL,88240.9010288554
"PIB par habitant, ($ PPA internationaux courants)",NY.GDP.PCAP.PP.CD,Île de Man,IMN,..
"PIB par habitant, ($ PPA internationaux courants)",NY.GDP.PCAP.PP.CD,Israël,ISR,42193.8255898777
"PIB par habitant, ($ PPA internationaux courants)",NY.GDP.PCAP.PP.CD,Italie,ITA,44196.6931032213
"PIB par habitant, ($ PPA internationaux courants)",NY.GDP.PCAP.PP.CD,Jamaïque,JAM,10166.0627751259
"PIB par habitant, ($ PPA internationaux courants)",NY.GDP.PCAP.PP.CD,Japon,JPN,43235.7175691122
"PIB par habitant, ($ PPA internationaux courants)",NY.GDP.PCAP.PP.CD,Jordanie,JOR,10316.6090946321
"PIB par habitant, ($ PPA internationaux courants)",NY.GDP.PCAP.PP.CD,Kazakhstan,KAZ,27443.5711721515
"PIB par habitant, ($ PPA internationaux courants)",NY.GDP.PCAP.PP.CD,Kenya,KEN,4509.32244225549
"PIB par habitant, ($ PPA internationaux courants)",NY.GDP.PCAP.PP.CD,Kiribati,KIR,2369.46552751514
"PIB par habitant, ($ PPA internationaux courants)",NY.GDP.PCAP.PP.CD,"Corée, République démocratique de",PRK,..
"PIB par habitant, ($ PPA internationaux courants)",NY.GDP.PCAP.PP.CD,"Corée, République de",KOR,43028.8963533414
"PIB par habitant, ($ PPA internationaux courants)",NY.GDP.PCAP.PP.CD,Kosovo,XKX,11838.8809953665
"PIB par habitant, ($ PPA internationaux courants)",NY.GDP.PCAP.PP.CD,Koweït,KWT,51912.0121291754
"PIB par habitant, ($ PPA internationaux courants)",NY.GDP.PCAP.PP.CD,République kirghize,KGZ,5470.81153606315
"PIB par habitant, ($ PPA internationaux courants)",NY.GDP.PCAP.PP.CD,République démocratique populaire lao,LAO,8150.7524258212
"PIB par habitant, ($ PPA internationaux courants)",NY.GDP.PCAP.PP.CD,Lettonie,LVA,32204.4578365291
"PIB par habitant, ($ PPA internationaux courants)",NY.GDP.PCAP.PP.CD,Liban,LBN,15327.3089629507
"PIB par habitant, ($ PPA internationaux courants)",NY.GDP.PCAP.PP.CD,Lesotho,LSO,2882.42190050236
"PIB par habitant, ($ PPA internationaux courants)",NY.GDP.PCAP.PP.CD,Libéria,LBR,1486.99489806734
"PIB par habitant, ($ PPA internationaux courants)",NY.GDP.PCAP.PP.CD,Libye,LBY,15803.0563753175
"PIB par habitant, ($ PPA internationaux courants)",NY.GDP.PCAP.PP.CD,Liechtenstein,LIE,..
"PIB par habitant, ($ PPA internationaux courants)",NY.GDP.PCAP.PP.CD,Lituanie,LTU,38214.2069298982
"PIB par habitant, ($ PPA internationaux courants)",NY.GDP.PCAP.PP.CD,Luxembourg,LUX,121292.73927222
"PIB par habitant, ($ PPA internationaux courants)",NY.GDP.PCAP.PP.CD,"Région administrative spéciale de Macao, Chine",MAC,129103.014352686
"PIB par habitant, ($ PPA internationaux courants)",NY.GDP.PCAP.PP.CD,Madagascar,MDG,1714.44745387655
"PIB par habitant, ($ PPA internationaux courants)",NY.GDP.PCAP.PP.CD,Malawi,MWI,1103.64361579209
"PIB par habitant, ($ PPA internationaux courants)",NY.GDP.PCAP.PP.CD,Malaisie,MYS,29525.5773629342
"PIB par habitant, ($ PPA internationaux courants)",NY.GDP.PCAP.PP.CD,Maldives,MDV,19698.2357543354
"PIB par habitant, ($ PPA internationaux courants)",NY.GDP.PCAP.PP.CD,Mali,MLI,2423.82876458679
"PIB par habitant, ($ PPA internationaux courants)",NY.GDP.PCAP.PP.CD,Malte,MLT,45651.5750035376
"PIB par habitant, ($ PPA internationaux courants)",NY.GDP.PCAP.PP.CD,Îles Marshall,MHL,..
"PIB par habitant, ($ PPA internationaux courants)",NY.GDP.PCAP.PP.CD,Mauritanie,MRT,5412.41916158234
"PIB par habitant, ($ PPA internationaux courants)",NY.GDP.PCAP.PP.CD,Maurice,MUS,23942.1324115873
"PIB par habitant, ($ PPA internationaux courants)",NY.GDP.PCAP.PP.CD,Mexique,MEX,20410.7065693914
"PIB par habitant, ($ PPA internationaux courants)",NY.GDP.PCAP.PP.CD,"Micronésie, États fédérés de",FSM,..
"PIB par habitant, ($ PPA internationaux courants)",NY.GDP.PCAP.PP.CD,Moldova,MDA,13574.0514280756
"PIB par habitant, ($ PPA internationaux courants)",NY.GDP.PCAP.PP.CD,Monaco,MCO,..
"PIB par habitant, ($ PPA internationaux courants)",NY.GDP.PCAP.PP.CD,Mongolie,MNG,12819.9485799073
"PIB par habitant, ($ PPA internationaux courants)",NY.GDP.PCAP.PP.CD,Monténégro,MNE,22988.6801996606
"PIB par habitant, ($ PPA internationaux courants)",NY.GDP.PCAP.PP.CD,Maroc,MAR,7826.16767727681
"PIB par habitant, ($ PPA internationaux courants)",NY.GDP.PCAP.PP.CD,Mozambique,MOZ,1333.51816685082
"PIB par habitant, ($ PPA internationaux courants)",NY.GDP.PCAP.PP.CD,Myanmar,MMR,5355.2701901514
"PIB par habitant, ($ PPA internationaux courants)",NY.GDP.PCAP.PP.CD,Namibie,NAM,10036.592457889
"PIB par habitant, ($ PPA internationaux courants)",NY.GDP.PCAP.PP.CD,Nauru,NRU,12080.0745947298
"PIB par habitant, ($ PPA internationaux courants)",NY.GDP.PCAP.PP.CD,Népal,NPL,3558.39982750064
"PIB par habitant, ($ PPA internationaux courants)",NY.GDP.PCAP.PP.CD,Pays-Bas,NLD,59686.8316301847
"PIB par habitant, ($ PPA internationaux courants)",NY.GDP.PCAP.PP.CD,Nouvelle-Calédonie,NCL,..
"PIB par habitant, ($ PPA internationaux courants)",NY.GDP.PCAP.PP.CD,Nouvelle-Zélande,NZL,43952.54842839
"PIB par habitant, ($ PPA internationaux courants)",NY.GDP.PCAP.PP.CD,Nicaragua,NIC,5631.20157305166
"PIB par habitant, ($ PPA internationaux courants)",NY.GDP.PCAP.PP.CD,Niger,NER,1269.6013993412
"PIB par habitant, ($ PPA internationaux courants)",NY.GDP.PCAP.PP.CD,Nigéria,NGA,5348.33979658925
"PIB par habitant, ($ PPA internationaux courants)",NY.GDP.PCAP.PP.CD,Macédoine du Nord,MKD,17814.8611785111
"PIB par habitant, ($ PPA internationaux courants)",NY.GDP.PCAP.PP.CD,Mariannes,MNP,..
"PIB par habitant, ($ PPA internationaux courants)",NY.GDP.PCAP.PP.CD,Norvège,NOR,66831.8688310396
"PIB par habitant, ($ PPA internationaux courants)",NY.GDP.PCAP.PP.CD,Oman,OMN,29052.4973969582
"PIB par habitant, ($ PPA internationaux courants)",NY.GDP.PCAP.PP.CD,Pakistan,PAK,4884.88138953447
"PIB par habitant, ($ PPA internationaux courants)",NY.GDP.PCAP.PP.CD,Palaos,PLW,..
"PIB par habitant, ($ PPA internationaux courants)",NY.GDP.PCAP.PP.CD,Panama,PAN,32762.4947471145
"PIB par habitant, ($ PPA internationaux courants)",NY.GDP.PCAP.PP.CD,Papouasie-Nouvelle-Guinée,PNG,4569.44617953884
"PIB par habitant, ($ PPA internationaux courants)",NY.GDP.PCAP.PP.CD,Paraguay,PRY,13210.3079115965
"PIB par habitant, ($ PPA internationaux courants)",NY.GDP.PCAP.PP.CD,Pérou,PER,13380.3644240996
"PIB par habitant, ($ PPA internationaux courants)",NY.GDP.PCAP.PP.CD,Philippines,PHL,9277.374369233
"PIB par habitant, ($ PPA internationaux courants)",NY.GDP.PCAP.PP.CD,Pologne,POL,34217.7157138218
"PIB par habitant, ($ PPA internationaux courants)",NY.GDP.PCAP.PP.CD,Portugal,PRT,36470.7067689104
"PIB par habitant, ($ PPA internationaux courants)",NY.GDP.PCAP.PP.CD,Porto Rico,PRI,35948.1919590315
"PIB par habitant, ($ PPA internationaux courants)",NY.GDP.PCAP.PP.CD,Qatar,QAT,96490.9838735541
"PIB par habitant, ($ PPA internationaux courants)",NY.GDP.PCAP.PP.CD,Roumanie,ROU,32297.3033740157
"PIB par habitant, ($ PPA internationaux courants)",NY.GDP.PCAP.PP.CD,Fédération de Russie,RUS,29181.3632177676
"PIB par habitant, ($ PPA internationaux courants)",NY.GDP.PCAP.PP.CD,Rwanda,RWA,2318.48623032223
"PIB par habitant, ($ PPA internationaux courants)",NY.GDP.PCAP.PP.CD,Samoa,WSM,6787.13142581817
"PIB par habitant, ($ PPA internationaux courants)",NY.GDP.PCAP.PP.CD,Saint-Marin,SMR,..
"PIB par habitant, ($ PPA internationaux courants)",NY.GDP.PCAP.PP.CD,Sao Tomé-et-Principe,STP,4128.062158576
"PIB par habitant, ($ PPA internationaux courants)",NY.GDP.PCAP.PP.CD,Arabie saoudite,SAU,48908.4823773339
"PIB par habitant, ($ PPA internationaux courants)",NY.GDP.PCAP.PP.CD,Sénégal,SEN,3535.56877916446
"PIB par habitant, ($ PPA internationaux courants)",NY.GDP.PCAP.PP.CD,Serbie,SRB,18989.0396642879
"PIB par habitant, ($ PPA internationaux courants)",NY.GDP.PCAP.PP.CD,Seychelles,SYC,30259.9610295443
"PIB par habitant, ($ PPA internationaux courants)",NY.GDP.PCAP.PP.CD,Sierra Leone,SLE,1789.58843099795
"PIB par habitant, ($ PPA internationaux courants)",NY.GDP.PCAP.PP.CD,Singapour,SGP,101375.775310612
"PIB par habitant, ($ PPA internationaux courants)",NY.GDP.PCAP.PP.CD,Sint Maarten (Dutch part),SXM,..
"PIB par habitant, ($ PPA internationaux courants)",NY.GDP.PCAP.PP.CD,République slovaque,SVK,34177.9527593862
"PIB par habitant, ($ PPA internationaux courants)",NY.GDP.PCAP.PP.CD,Slovénie,SVN,40656.5573650452
"PIB par habitant, ($ PPA internationaux courants)",NY.GDP.PCAP.PP.CD,Îles Salomon,SLB,2465.52064273051
"PIB par habitant, ($ PPA internationaux courants)",NY.GDP.PCAP.PP.CD,Somalie,SOM,..
"PIB par habitant, ($ PPA internationaux courants)",NY.GDP.PCAP.PP.CD,Afrique du Sud,ZAF,12999.1202555973
"PIB par habitant, ($ PPA internationaux courants)",NY.GDP.PCAP.PP.CD,Soudan du Sud,SSD,..
"PIB par habitant, ($ PPA internationaux courants)",NY.GDP.PCAP.PP.CD,Espagne,ESP,42214.1303934743
"PIB par habitant, ($ PPA internationaux courants)",NY.GDP.PCAP.PP.CD,Sri Lanka,LKA,13620.1184803752
"PIB par habitant, ($ PPA internationaux courants)",NY.GDP.PCAP.PP.CD,Saint-Kitts-et-Nevis,KNA,27448.8953536914
"PIB par habitant, ($ PPA internationaux courants)",NY.GDP.PCAP.PP.CD,Sainte-Lucie,LCA,16089.0676701298
"PIB par habitant, ($ PPA internationaux courants)",NY.GDP.PCAP.PP.CD,Saint-Martin (fr),MAF,..
"PIB par habitant, ($ PPA internationaux courants)",NY.GDP.PCAP.PP.CD,Saint-Vincent-et-les Grenadines,VCT,12982.896388735
"PIB par habitant, ($ PPA internationaux courants)",NY.GDP.PCAP.PP.CD,Soudan,SDN,4122.52668491946
"PIB par habitant, ($ PPA internationaux courants)",NY.GDP.PCAP.PP.CD,Suriname,SUR,17005.4267499399
"PIB par habitant, ($ PPA internationaux courants)",NY.GDP.PCAP.PP.CD,Suède,SWE,55814.5126535272
"PIB par habitant, ($ PPA internationaux courants)",NY.GDP.PCAP.PP.CD,Suisse,CHE,70989.2581261576
"PIB par habitant, ($ PPA internationaux courants)",NY.GDP.PCAP.PP.CD,République arabe syrienne,SYR,..
"PIB par habitant, ($ PPA internationaux courants)",NY.GDP.PCAP.PP.CD,Tadjikistan,TJK,3519.82201670116
"PIB par habitant, ($ PPA internationaux courants)",NY.GDP.PCAP.PP.CD,Tanzanie,TZA,2770.68117187672
"PIB par habitant, ($ PPA internationaux courants)",NY.GDP.PCAP.PP.CD,Thaïlande,THA,19228.2946818444
"PIB par habitant, ($ PPA internationaux courants)",NY.GDP.PCAP.PP.CD,Timor-Leste,TLS,3252.546371144
"PIB par habitant, ($ PPA internationaux courants)",NY.GDP.PCAP.PP.CD,Togo,TGO,1662.07234490352
"PIB par habitant, ($ PPA internationaux courants)",NY.GDP.PCAP.PP.CD,Tonga,TON,..
"PIB par habitant, ($ PPA internationaux courants)",NY.GDP.PCAP.PP.CD,Trinité-et-Tobago,TTO,27260.8112233827
"PIB par habitant, ($ PPA internationaux courants)",NY.GDP.PCAP.PP.CD,Tunisie,TUN,11201.3437583802
"PIB par habitant, ($ PPA internationaux courants)",NY.GDP.PCAP.PP.CD,Turquie,TUR,27875.1932514847
"PIB par habitant, ($ PPA internationaux courants)",NY.GDP.PCAP.PP.CD,Turkménistan,TKM,..
"PIB par habitant, ($ PPA internationaux courants)",NY.GDP.PCAP.PP.CD,Îles Turques-et-Caïques,TCA,..
"PIB par habitant, ($ PPA internationaux courants)",NY.GDP.PCAP.PP.CD,Tuvalu,TUV,4465.23093078823
"PIB par habitant, ($ PPA internationaux courants)",NY.GDP.PCAP.PP.CD,Ouganda,UGA,2271.64942402167
"PIB par habitant, ($ PPA internationaux courants)",NY.GDP.PCAP.PP.CD,Ukraine,UKR,13341.2105189612
"PIB par habitant, ($ PPA internationaux courants)",NY.GDP.PCAP.PP.CD,Émirats arabes unis,ARE,69900.8778476933
"PIB par habitant, ($ PPA internationaux courants)",NY.GDP.PCAP.PP.CD,Royaume-Uni,GBR,48709.701144586
"PIB par habitant, ($ PPA internationaux courants)",NY.GDP.PCAP.PP.CD,États-Unis,USA,65118.358332816
"PIB par habitant, ($ PPA internationaux courants)",NY.GDP.PCAP.PP.CD,Uruguay,URY,22454.6579433455
"PIB par habitant, ($ PPA internationaux courants)",NY.GDP.PCAP.PP.CD,Ouzbékistan,UZB,7288.76562624693
"PIB par habitant, ($ PPA internationaux courants)",NY.GDP.PCAP.PP.CD,Vanuatu,VUT,3273.91494425231
"PIB par habitant, ($ PPA internationaux courants)",NY.GDP.PCAP.PP.CD,Venezuela,VEN,..
"PIB par habitant, ($ PPA internationaux courants)",NY.GDP.PCAP.PP.CD,Viet Nam,VNM,8374.44432824534
"PIB par habitant, ($ PPA internationaux courants)",NY.GDP.PCAP.PP.CD,Îles Vierges (EU),VIR,..
"PIB par habitant, ($ PPA internationaux courants)",NY.GDP.PCAP.PP.CD,Cisjordanie et Gaza,PSE,..
"PIB par habitant, ($ PPA internationaux courants)",NY.GDP.PCAP.PP.CD,"Yémen, Rép. du",YEM,..
"PIB par habitant, ($ PPA internationaux courants)",NY.GDP.PCAP.PP.CD,Zambie,ZMB,3623.69939478386
"PIB par habitant, ($ PPA internationaux courants)",NY.GDP.PCAP.PP.CD,Zimbabwe,ZWE,2953.48411281195
,,,,
,,,,
,,,,
Data from Database: Indicateurs du développement dans le monde,,,,
Last Updated: 08/18/2020,,,,
