Nom région,Nb actuellement hospitalisés,Nb actuellement en soins intensifs,Total retour à domicile,Total Décès
Auvergne-Rhône-Alpes,242,19,8274,1771
Bourgogne-Franche-Comté,20,5,4103,1064
Bretagne,66,5,1372,269
Centre-Val de Loire,60,8,2369,571
Corse,6,2,256,59
Grand Est,509,20,13000,3645
Guadeloupe,11,7,90,19
Guyane,82,16,1419,51
Hauts-de-France,472,37,7191,1936
La Réunion,45,9,193,6
Martinique,11,3,99,17
Mayotte,6,1,438,28
Normandie,71,1,1885,446
Nouvelle-Aquitaine,71,12,2312,430
Occitanie,101,13,3039,520
Pays de la Loire,107,12,2364,488
Provence-Alpes-Côte d'Azur,360,31,6129,984
Île-de-France,2443,170,30413,7677
