﻿Series Name,Series Code,Country Name,Country Code,2018 [YR2018]
"Transport aérien, voyageurs transportés",IS.AIR.PSGR,Afghanistan,AFG,1722612.61
"Transport aérien, voyageurs transportés",IS.AIR.PSGR,Albanie,ALB,303137
"Transport aérien, voyageurs transportés",IS.AIR.PSGR,Algérie,DZA,6442442
"Transport aérien, voyageurs transportés",IS.AIR.PSGR,Samoa américaines,ASM,..
"Transport aérien, voyageurs transportés",IS.AIR.PSGR,Andorre,AND,..
"Transport aérien, voyageurs transportés",IS.AIR.PSGR,Angola,AGO,1516628
"Transport aérien, voyageurs transportés",IS.AIR.PSGR,Antigua-et-Barbuda,ATG,580174.156834825
"Transport aérien, voyageurs transportés",IS.AIR.PSGR,Argentine,ARG,18081937
"Transport aérien, voyageurs transportés",IS.AIR.PSGR,Arménie,ARM,..
"Transport aérien, voyageurs transportés",IS.AIR.PSGR,Aruba,ABW,274280
"Transport aérien, voyageurs transportés",IS.AIR.PSGR,Australie,AUS,75667645.0347507
"Transport aérien, voyageurs transportés",IS.AIR.PSGR,Autriche,AUT,12935505
"Transport aérien, voyageurs transportés",IS.AIR.PSGR,Azerbaïdjan,AZE,2279546
"Transport aérien, voyageurs transportés",IS.AIR.PSGR,Bahamas,BHS,1197116.19679215
"Transport aérien, voyageurs transportés",IS.AIR.PSGR,Bahreïn,BHR,5877003
"Transport aérien, voyageurs transportés",IS.AIR.PSGR,Bangladesh,BGD,5984155.21211717
"Transport aérien, voyageurs transportés",IS.AIR.PSGR,Barbade,BRB,..
"Transport aérien, voyageurs transportés",IS.AIR.PSGR,Bélarus,BLR,2760168
"Transport aérien, voyageurs transportés",IS.AIR.PSGR,Belgique,BEL,13639487
"Transport aérien, voyageurs transportés",IS.AIR.PSGR,Belize,BLZ,1297533.22307894
"Transport aérien, voyageurs transportés",IS.AIR.PSGR,Bénin,BEN,..
"Transport aérien, voyageurs transportés",IS.AIR.PSGR,Bermudes,BMU,..
"Transport aérien, voyageurs transportés",IS.AIR.PSGR,Bhoutan,BTN,275849
"Transport aérien, voyageurs transportés",IS.AIR.PSGR,Bolivie,BOL,4122113
"Transport aérien, voyageurs transportés",IS.AIR.PSGR,Bosnie-Herzégovine,BIH,..
"Transport aérien, voyageurs transportés",IS.AIR.PSGR,Botswana,BWA,253417
"Transport aérien, voyageurs transportés",IS.AIR.PSGR,Brésil,BRA,102109977
"Transport aérien, voyageurs transportés",IS.AIR.PSGR,Îles Vierges britanniques,VGB,..
"Transport aérien, voyageurs transportés",IS.AIR.PSGR,Brunéi Darussalam,BRN,1234455
"Transport aérien, voyageurs transportés",IS.AIR.PSGR,Bulgarie,BGR,1022645
"Transport aérien, voyageurs transportés",IS.AIR.PSGR,Burkina Faso,BFA,151531
"Transport aérien, voyageurs transportés",IS.AIR.PSGR,Burundi,BDI,..
"Transport aérien, voyageurs transportés",IS.AIR.PSGR,Cabo Verde,CPV,140429
"Transport aérien, voyageurs transportés",IS.AIR.PSGR,Cambodge,KHM,1411059
"Transport aérien, voyageurs transportés",IS.AIR.PSGR,Cameroun,CMR,265136
"Transport aérien, voyageurs transportés",IS.AIR.PSGR,Canada,CAN,89380000
"Transport aérien, voyageurs transportés",IS.AIR.PSGR,Îles Caïmans,CYM,..
"Transport aérien, voyageurs transportés",IS.AIR.PSGR,République centrafricaine,CAF,..
"Transport aérien, voyageurs transportés",IS.AIR.PSGR,Tchad,TCD,..
"Transport aérien, voyageurs transportés",IS.AIR.PSGR,Îles Anglo-Normandes,CHI,..
"Transport aérien, voyageurs transportés",IS.AIR.PSGR,Chili,CHL,19517185
"Transport aérien, voyageurs transportés",IS.AIR.PSGR,Chine,CHN,611439830
"Transport aérien, voyageurs transportés",IS.AIR.PSGR,Colombie,COL,33704037
"Transport aérien, voyageurs transportés",IS.AIR.PSGR,Comores,COM,..
"Transport aérien, voyageurs transportés",IS.AIR.PSGR,"Congo, République démocratique du",COD,932043.438522108
"Transport aérien, voyageurs transportés",IS.AIR.PSGR,"Congo, République du",COG,333899
"Transport aérien, voyageurs transportés",IS.AIR.PSGR,Costa Rica,CRI,1948546
"Transport aérien, voyageurs transportés",IS.AIR.PSGR,Côte d'Ivoire,CIV,779482
"Transport aérien, voyageurs transportés",IS.AIR.PSGR,Croatie,HRV,2093577
"Transport aérien, voyageurs transportés",IS.AIR.PSGR,Cuba,CUB,560754.332
"Transport aérien, voyageurs transportés",IS.AIR.PSGR,Curacao,CUW,..
"Transport aérien, voyageurs transportés",IS.AIR.PSGR,Chypre,CYP,401408
"Transport aérien, voyageurs transportés",IS.AIR.PSGR,République tchèque,CZE,5727200
"Transport aérien, voyageurs transportés",IS.AIR.PSGR,Danemark,DNK,..
"Transport aérien, voyageurs transportés",IS.AIR.PSGR,Djibouti,DJI,..
"Transport aérien, voyageurs transportés",IS.AIR.PSGR,Dominique,DMA,..
"Transport aérien, voyageurs transportés",IS.AIR.PSGR,République dominicaine,DOM,..
"Transport aérien, voyageurs transportés",IS.AIR.PSGR,Équateur,ECU,5365261
"Transport aérien, voyageurs transportés",IS.AIR.PSGR,"Égypte, République arabe d’",EGY,12340832
"Transport aérien, voyageurs transportés",IS.AIR.PSGR,El Salvador,SLV,2545105
"Transport aérien, voyageurs transportés",IS.AIR.PSGR,Guinée équatoriale,GNQ,466435.119298493
"Transport aérien, voyageurs transportés",IS.AIR.PSGR,Érythrée,ERI,102729
"Transport aérien, voyageurs transportés",IS.AIR.PSGR,Estonie,EST,31981
"Transport aérien, voyageurs transportés",IS.AIR.PSGR,Eswatini,SWZ,..
"Transport aérien, voyageurs transportés",IS.AIR.PSGR,Éthiopie,ETH,11501244
"Transport aérien, voyageurs transportés",IS.AIR.PSGR,Îles Féroé,FRO,..
"Transport aérien, voyageurs transportés",IS.AIR.PSGR,Fidji,FJI,1670216
"Transport aérien, voyageurs transportés",IS.AIR.PSGR,Finlande,FIN,13364839
"Transport aérien, voyageurs transportés",IS.AIR.PSGR,France,FRA,70188028
"Transport aérien, voyageurs transportés",IS.AIR.PSGR,Polynésie française,PYF,..
"Transport aérien, voyageurs transportés",IS.AIR.PSGR,Gabon,GAB,..
"Transport aérien, voyageurs transportés",IS.AIR.PSGR,Gambie,GMB,53735
"Transport aérien, voyageurs transportés",IS.AIR.PSGR,Géorgie,GEO,516034
"Transport aérien, voyageurs transportés",IS.AIR.PSGR,Allemagne,DEU,109796202.17431
"Transport aérien, voyageurs transportés",IS.AIR.PSGR,Ghana,GHA,467438
"Transport aérien, voyageurs transportés",IS.AIR.PSGR,Gibraltar,GIB,..
"Transport aérien, voyageurs transportés",IS.AIR.PSGR,Grèce,GRC,15125933.5152598
"Transport aérien, voyageurs transportés",IS.AIR.PSGR,Groenland,GRL,..
"Transport aérien, voyageurs transportés",IS.AIR.PSGR,Grenade,GRD,..
"Transport aérien, voyageurs transportés",IS.AIR.PSGR,Guam,GUM,..
"Transport aérien, voyageurs transportés",IS.AIR.PSGR,Guatemala,GTM,145795
"Transport aérien, voyageurs transportés",IS.AIR.PSGR,Guinée,GIN,..
"Transport aérien, voyageurs transportés",IS.AIR.PSGR,Guinée-Bissau,GNB,..
"Transport aérien, voyageurs transportés",IS.AIR.PSGR,Guyane,GUY,26069
"Transport aérien, voyageurs transportés",IS.AIR.PSGR,Haïti,HTI,..
"Transport aérien, voyageurs transportés",IS.AIR.PSGR,Honduras,HND,411989
"Transport aérien, voyageurs transportés",IS.AIR.PSGR,"Chine, RAS de Hong Kong",HKG,47101822
"Transport aérien, voyageurs transportés",IS.AIR.PSGR,Hongrie,HUN,31226848
"Transport aérien, voyageurs transportés",IS.AIR.PSGR,Islande,ISL,7819740.55998243
"Transport aérien, voyageurs transportés",IS.AIR.PSGR,Inde,IND,164035637.545
"Transport aérien, voyageurs transportés",IS.AIR.PSGR,Indonésie,IDN,115154100.909
"Transport aérien, voyageurs transportés",IS.AIR.PSGR,"Iran, République islamique d’",IRN,25604871.412779
"Transport aérien, voyageurs transportés",IS.AIR.PSGR,Iraq,IRQ,2075065.8
"Transport aérien, voyageurs transportés",IS.AIR.PSGR,Irlande,IRL,167598633
"Transport aérien, voyageurs transportés",IS.AIR.PSGR,Île de Man,IMN,..
"Transport aérien, voyageurs transportés",IS.AIR.PSGR,Israël,ISR,7404373
"Transport aérien, voyageurs transportés",IS.AIR.PSGR,Italie,ITA,27630435.6
"Transport aérien, voyageurs transportés",IS.AIR.PSGR,Jamaïque,JAM,180951.272
"Transport aérien, voyageurs transportés",IS.AIR.PSGR,Japon,JPN,126387527
"Transport aérien, voyageurs transportés",IS.AIR.PSGR,Jordanie,JOR,3383805
"Transport aérien, voyageurs transportés",IS.AIR.PSGR,Kazakhstan,KAZ,7143797
"Transport aérien, voyageurs transportés",IS.AIR.PSGR,Kenya,KEN,5935831.09691728
"Transport aérien, voyageurs transportés",IS.AIR.PSGR,Kiribati,KIR,66567
"Transport aérien, voyageurs transportés",IS.AIR.PSGR,"Corée, République démocratique de",PRK,103560
"Transport aérien, voyageurs transportés",IS.AIR.PSGR,"Corée, République de",KOR,88157579
"Transport aérien, voyageurs transportés",IS.AIR.PSGR,Kosovo,XKX,..
"Transport aérien, voyageurs transportés",IS.AIR.PSGR,Koweït,KWT,6464847
"Transport aérien, voyageurs transportés",IS.AIR.PSGR,République kirghize,KGZ,709198.932479812
"Transport aérien, voyageurs transportés",IS.AIR.PSGR,République démocratique populaire lao,LAO,1251961.7858552
"Transport aérien, voyageurs transportés",IS.AIR.PSGR,Lettonie,LVA,4058762
"Transport aérien, voyageurs transportés",IS.AIR.PSGR,Liban,LBN,2981937
"Transport aérien, voyageurs transportés",IS.AIR.PSGR,Lesotho,LSO,..
"Transport aérien, voyageurs transportés",IS.AIR.PSGR,Libéria,LBR,..
"Transport aérien, voyageurs transportés",IS.AIR.PSGR,Libye,LBY,927153.880702403
"Transport aérien, voyageurs transportés",IS.AIR.PSGR,Liechtenstein,LIE,..
"Transport aérien, voyageurs transportés",IS.AIR.PSGR,Lituanie,LTU,26031
"Transport aérien, voyageurs transportés",IS.AIR.PSGR,Luxembourg,LUX,2099102
"Transport aérien, voyageurs transportés",IS.AIR.PSGR,"Région administrative spéciale de Macao, Chine",MAC,3157724
"Transport aérien, voyageurs transportés",IS.AIR.PSGR,Madagascar,MDG,541290
"Transport aérien, voyageurs transportés",IS.AIR.PSGR,Malawi,MWI,10545
"Transport aérien, voyageurs transportés",IS.AIR.PSGR,Malaisie,MYS,60481772
"Transport aérien, voyageurs transportés",IS.AIR.PSGR,Maldives,MDV,1147247
"Transport aérien, voyageurs transportés",IS.AIR.PSGR,Mali,MLI,..
"Transport aérien, voyageurs transportés",IS.AIR.PSGR,Malte,MLT,2576898
"Transport aérien, voyageurs transportés",IS.AIR.PSGR,Îles Marshall,MHL,24313
"Transport aérien, voyageurs transportés",IS.AIR.PSGR,Mauritanie,MRT,454435.697242701
"Transport aérien, voyageurs transportés",IS.AIR.PSGR,Maurice,MUS,1745291
"Transport aérien, voyageurs transportés",IS.AIR.PSGR,Mexique,MEX,64569640
"Transport aérien, voyageurs transportés",IS.AIR.PSGR,"Micronésie, États fédérés de",FSM,..
"Transport aérien, voyageurs transportés",IS.AIR.PSGR,Moldova,MDA,1135999
"Transport aérien, voyageurs transportés",IS.AIR.PSGR,Monaco,MCO,316
"Transport aérien, voyageurs transportés",IS.AIR.PSGR,Mongolie,MNG,670360
"Transport aérien, voyageurs transportés",IS.AIR.PSGR,Monténégro,MNE,565522
"Transport aérien, voyageurs transportés",IS.AIR.PSGR,Maroc,MAR,8132917
"Transport aérien, voyageurs transportés",IS.AIR.PSGR,Mozambique,MOZ,540124
"Transport aérien, voyageurs transportés",IS.AIR.PSGR,Myanmar,MMR,3407788.43290303
"Transport aérien, voyageurs transportés",IS.AIR.PSGR,Namibie,NAM,602893
"Transport aérien, voyageurs transportés",IS.AIR.PSGR,Nauru,NRU,45457
"Transport aérien, voyageurs transportés",IS.AIR.PSGR,Népal,NPL,3296953
"Transport aérien, voyageurs transportés",IS.AIR.PSGR,Pays-Bas,NLD,43996044.579144
"Transport aérien, voyageurs transportés",IS.AIR.PSGR,Nouvelle-Calédonie,NCL,..
"Transport aérien, voyageurs transportés",IS.AIR.PSGR,Nouvelle-Zélande,NZL,17249049.9541367
"Transport aérien, voyageurs transportés",IS.AIR.PSGR,Nicaragua,NIC,..
"Transport aérien, voyageurs transportés",IS.AIR.PSGR,Niger,NER,..
"Transport aérien, voyageurs transportés",IS.AIR.PSGR,Nigéria,NGA,8169192.31
"Transport aérien, voyageurs transportés",IS.AIR.PSGR,Macédoine du Nord,MKD,..
"Transport aérien, voyageurs transportés",IS.AIR.PSGR,Mariannes,MNP,..
"Transport aérien, voyageurs transportés",IS.AIR.PSGR,Norvège,NOR,..
"Transport aérien, voyageurs transportés",IS.AIR.PSGR,Oman,OMN,10438241
"Transport aérien, voyageurs transportés",IS.AIR.PSGR,Pakistan,PAK,6880637
"Transport aérien, voyageurs transportés",IS.AIR.PSGR,Palaos,PLW,..
"Transport aérien, voyageurs transportés",IS.AIR.PSGR,Panama,PAN,12939350
"Transport aérien, voyageurs transportés",IS.AIR.PSGR,Papouasie-Nouvelle-Guinée,PNG,964713
"Transport aérien, voyageurs transportés",IS.AIR.PSGR,Paraguay,PRY,560631
"Transport aérien, voyageurs transportés",IS.AIR.PSGR,Pérou,PER,17758527.272
"Transport aérien, voyageurs transportés",IS.AIR.PSGR,Philippines,PHL,43080118
"Transport aérien, voyageurs transportés",IS.AIR.PSGR,Pologne,POL,9277538
"Transport aérien, voyageurs transportés",IS.AIR.PSGR,Portugal,PRT,17367956
"Transport aérien, voyageurs transportés",IS.AIR.PSGR,Porto Rico,PRI,..
"Transport aérien, voyageurs transportés",IS.AIR.PSGR,Qatar,QAT,29178923
"Transport aérien, voyageurs transportés",IS.AIR.PSGR,Roumanie,ROU,4908235
"Transport aérien, voyageurs transportés",IS.AIR.PSGR,Fédération de Russie,RUS,99327311
"Transport aérien, voyageurs transportés",IS.AIR.PSGR,Rwanda,RWA,1073528
"Transport aérien, voyageurs transportés",IS.AIR.PSGR,Samoa,WSM,137770
"Transport aérien, voyageurs transportés",IS.AIR.PSGR,Saint-Marin,SMR,..
"Transport aérien, voyageurs transportés",IS.AIR.PSGR,Sao Tomé-et-Principe,STP,..
"Transport aérien, voyageurs transportés",IS.AIR.PSGR,Arabie saoudite,SAU,39141659.999
"Transport aérien, voyageurs transportés",IS.AIR.PSGR,Sénégal,SEN,21038
"Transport aérien, voyageurs transportés",IS.AIR.PSGR,Serbie,SRB,2262703
"Transport aérien, voyageurs transportés",IS.AIR.PSGR,Seychelles,SYC,455201
"Transport aérien, voyageurs transportés",IS.AIR.PSGR,Sierra Leone,SLE,..
"Transport aérien, voyageurs transportés",IS.AIR.PSGR,Singapour,SGP,40401515
"Transport aérien, voyageurs transportés",IS.AIR.PSGR,Sint Maarten (Dutch part),SXM,..
"Transport aérien, voyageurs transportés",IS.AIR.PSGR,République slovaque,SVK,..
"Transport aérien, voyageurs transportés",IS.AIR.PSGR,Slovénie,SVN,1094762
"Transport aérien, voyageurs transportés",IS.AIR.PSGR,Îles Salomon,SLB,427806
"Transport aérien, voyageurs transportés",IS.AIR.PSGR,Somalie,SOM,4486
"Transport aérien, voyageurs transportés",IS.AIR.PSGR,Afrique du Sud,ZAF,23921748.0700525
"Transport aérien, voyageurs transportés",IS.AIR.PSGR,Soudan du Sud,SSD,..
"Transport aérien, voyageurs transportés",IS.AIR.PSGR,Espagne,ESP,80672105
"Transport aérien, voyageurs transportés",IS.AIR.PSGR,Sri Lanka,LKA,5882376
"Transport aérien, voyageurs transportés",IS.AIR.PSGR,Saint-Kitts-et-Nevis,KNA,..
"Transport aérien, voyageurs transportés",IS.AIR.PSGR,Sainte-Lucie,LCA,..
"Transport aérien, voyageurs transportés",IS.AIR.PSGR,Saint-Martin (fr),MAF,..
"Transport aérien, voyageurs transportés",IS.AIR.PSGR,Saint-Vincent-et-les Grenadines,VCT,..
"Transport aérien, voyageurs transportés",IS.AIR.PSGR,Soudan,SDN,269958.48
"Transport aérien, voyageurs transportés",IS.AIR.PSGR,Suriname,SUR,272347
"Transport aérien, voyageurs transportés",IS.AIR.PSGR,Suède,SWE,..
"Transport aérien, voyageurs transportés",IS.AIR.PSGR,Suisse,CHE,28857994
"Transport aérien, voyageurs transportés",IS.AIR.PSGR,République arabe syrienne,SYR,17896.9211653632
"Transport aérien, voyageurs transportés",IS.AIR.PSGR,Tadjikistan,TJK,492320
"Transport aérien, voyageurs transportés",IS.AIR.PSGR,Tanzanie,TZA,1481557
"Transport aérien, voyageurs transportés",IS.AIR.PSGR,Thaïlande,THA,76053042.754
"Transport aérien, voyageurs transportés",IS.AIR.PSGR,Timor-Leste,TLS,..
"Transport aérien, voyageurs transportés",IS.AIR.PSGR,Togo,TGO,566295
"Transport aérien, voyageurs transportés",IS.AIR.PSGR,Tonga,TON,..
"Transport aérien, voyageurs transportés",IS.AIR.PSGR,Trinité-et-Tobago,TTO,2525130
"Transport aérien, voyageurs transportés",IS.AIR.PSGR,Tunisie,TUN,4274199
"Transport aérien, voyageurs transportés",IS.AIR.PSGR,Turquie,TUR,115595495.817
"Transport aérien, voyageurs transportés",IS.AIR.PSGR,Turkménistan,TKM,2457474
"Transport aérien, voyageurs transportés",IS.AIR.PSGR,Îles Turques-et-Caïques,TCA,..
"Transport aérien, voyageurs transportés",IS.AIR.PSGR,Tuvalu,TUV,..
"Transport aérien, voyageurs transportés",IS.AIR.PSGR,Ouganda,UGA,21537
"Transport aérien, voyageurs transportés",IS.AIR.PSGR,Ukraine,UKR,7854842
"Transport aérien, voyageurs transportés",IS.AIR.PSGR,Émirats arabes unis,ARE,95533069
"Transport aérien, voyageurs transportés",IS.AIR.PSGR,Royaume-Uni,GBR,165388610
"Transport aérien, voyageurs transportés",IS.AIR.PSGR,États-Unis,USA,889022000
"Transport aérien, voyageurs transportés",IS.AIR.PSGR,Uruguay,URY,..
"Transport aérien, voyageurs transportés",IS.AIR.PSGR,Ouzbékistan,UZB,3056558
"Transport aérien, voyageurs transportés",IS.AIR.PSGR,Vanuatu,VUT,374603
"Transport aérien, voyageurs transportés",IS.AIR.PSGR,Venezuela,VEN,2137771
"Transport aérien, voyageurs transportés",IS.AIR.PSGR,Viet Nam,VNM,47049671
"Transport aérien, voyageurs transportés",IS.AIR.PSGR,Îles Vierges (EU),VIR,..
"Transport aérien, voyageurs transportés",IS.AIR.PSGR,Cisjordanie et Gaza,PSE,..
"Transport aérien, voyageurs transportés",IS.AIR.PSGR,"Yémen, Rép. du",YEM,336310
"Transport aérien, voyageurs transportés",IS.AIR.PSGR,Zambie,ZMB,8904
"Transport aérien, voyageurs transportés",IS.AIR.PSGR,Zimbabwe,ZWE,282539
,,,,
,,,,
,,,,
Data from Database: Indicateurs du développement dans le monde,,,,
Last Updated: 08/18/2020,,,,
